{
    "page": 1,
    "total_results": 137,
    "total_pages": 7,
    "results": [
        {
            "popularity": 53.572,
            "vote_count": 14149,
            "video": false,
            "poster_path": "/6FfCtAuVAW8XJjZ7eWeLibRLWTw.jpg",
            "id": 11,
            "adult": false,
            "backdrop_path": "/zqkmTXzjkAgXmEWLRsY4UpTWCeo.jpg",
            "original_language": "en",
            "original_title": "Star Wars",
            "genre_ids": [
                28,
                12,
                878
            ],
            "title": "Star Wars",
            "vote_average": 8.2,
            "overview": "Princess Leia is captured and held hostage by the evil Imperial forces in their effort to take over the galactic Empire. Venturesome Luke Skywalker and dashing captain Han Solo team together with the loveable robot duo R2-D2 and C-3PO to rescue the beautiful princess and restore peace and justice in the Empire.",
            "release_date": "1977-05-25"
        },
        {
            "popularity": 64.481,
            "vote_count": 5464,
            "video": false,
            "poster_path": "/db32LaOibwEliAmSL2jjDF6oDdj.jpg",
            "id": 181812,
            "adult": false,
            "backdrop_path": "/SPkEiZGxq5aHWQ2Zw7AITwSEo2.jpg",
            "original_language": "en",
            "original_title": "Star Wars: The Rise of Skywalker",
            "genre_ids": [
                28,
                12,
                878
            ],
            "title": "Star Wars: The Rise of Skywalker",
            "vote_average": 6.6,
            "overview": "The surviving Resistance faces the First Order once again as the journey of Rey, Finn and Poe Dameron continues. With the power and knowledge of generations behind them, the final battle begins.",
            "release_date": "2019-12-18"
        },
        {
            "popularity": 33.256,
            "vote_count": 10910,
            "video": false,
            "poster_path": "/kOVEVeg59E0wsnXmF9nrh6OmWII.jpg",
            "id": 181808,
            "adult": false,
            "backdrop_path": "/5Iw7zQTHVRBOYpA0V6z0yypOPZh.jpg",
            "original_language": "en",
            "original_title": "Star Wars: The Last Jedi",
            "genre_ids": [
                28,
                12,
                878
            ],
            "title": "Star Wars: The Last Jedi",
            "vote_average": 6.9,
            "overview": "Rey develops her newly discovered abilities with the guidance of Luke Skywalker, who is unsettled by the strength of her powers. Meanwhile, the Resistance prepares to do battle with the First Order.",
            "release_date": "2017-12-13"
        },
        {
            "popularity": 29.579,
            "vote_count": 5539,
            "video": false,
            "poster_path": "/4oD6VEccFkorEBTEDXtpLAaz0Rl.jpg",
            "id": 348350,
            "adult": false,
            "backdrop_path": "/7LZ0K4FsALrt7OeNIGOVLNuKQRU.jpg",
            "original_language": "en",
            "original_title": "Solo: A Star Wars Story",
            "genre_ids": [
                12,
                878
            ],
            "title": "Solo: A Star Wars Story",
            "vote_average": 6.6,
            "overview": "Through a series of daring escapades deep within a dark and dangerous criminal underworld, Han Solo meets his mighty future copilot Chewbacca and encounters the notorious gambler Lando Calrissian.",
            "release_date": "2018-05-15"
        },
        {
            "popularity": 28.744,
            "vote_count": 14824,
            "video": false,
            "poster_path": "/wqnLdwVXoBjKibFRR5U3y0aDUhs.jpg",
            "id": 140607,
            "adult": false,
            "backdrop_path": "/k6EOrckWFuz7I4z4wiRwz8zsj4H.jpg",
            "original_language": "en",
            "original_title": "Star Wars: The Force Awakens",
            "genre_ids": [
                28,
                12,
                14,
                878
            ],
            "title": "Star Wars: The Force Awakens",
            "vote_average": 7.4,
            "overview": "Thirty years after defeating the Galactic Empire, Han Solo and his allies face a new threat from the evil Kylo Ren and his army of Stormtroopers.",
            "release_date": "2015-12-15"
        },
        {
            "popularity": 25.277,
            "id": 330459,
            "video": false,
            "vote_count": 11217,
            "vote_average": 7.5,
            "title": "Rogue One: A Star Wars Story",
            "release_date": "2016-12-14",
            "original_language": "en",
            "original_title": "Rogue One: A Star Wars Story",
            "genre_ids": [
                28,
                12,
                878
            ],
            "backdrop_path": "/6t8ES1d12OzWyCGxBeDYLHoaDrT.jpg",
            "adult": false,
            "overview": "A rogue band of resistance fighters unite for a mission to steal the Death Star plans and bring a new hope to the galaxy.",
            "poster_path": "/5jX3p0apUG5bkMHtnKZch0xpkBS.jpg"
        },
        {
            "popularity": 23.63,
            "vote_count": 10006,
            "video": false,
            "poster_path": "/6wkfovpn7Eq8dYNKaG5PY3q2oq6.jpg",
            "id": 1893,
            "adult": false,
            "backdrop_path": "/qDEvctVfAheD7x9Rzz8xcFRAGAU.jpg",
            "original_language": "en",
            "original_title": "Star Wars: Episode I - The Phantom Menace",
            "genre_ids": [
                28,
                12,
                878
            ],
            "title": "Star Wars: Episode I - The Phantom Menace",
            "vote_average": 6.5,
            "overview": "Anakin Skywalker, a young slave strong with the Force, is discovered on Tatooine. Meanwhile, the evil Sith have returned, enacting their plot for revenge against the Jedi.",
            "release_date": "1999-05-19"
        },
        {
            "popularity": 11.71,
            "vote_count": 13,
            "video": false,
            "poster_path": "/zIffPwISrW48qSmvAXEV27lBTMA.jpg",
            "id": 378386,
            "adult": false,
            "backdrop_path": null,
            "original_language": "en",
            "original_title": "Star Wars: Greatest Moments",
            "genre_ids": [
                99
            ],
            "title": "Star Wars: Greatest Moments",
            "vote_average": 6.5,
            "overview": "Alex Zane counts down the top 20 Star Wars moments as voted by the public. Includes contributions from famous fans as well as the stars and crew of the intergalactic saga.",
            "release_date": "2015-12-26"
        },
        {
            "popularity": 25.496,
            "vote_count": 9382,
            "video": false,
            "poster_path": "/xfSAoBEm9MNBjmlNcDYLvLSMlnq.jpg",
            "id": 1895,
            "adult": false,
            "backdrop_path": "/vgGJ9ThoKjFbQHbAeI29NsbT2lK.jpg",
            "original_language": "en",
            "original_title": "Star Wars: Episode III - Revenge of the Sith",
            "genre_ids": [
                28,
                12,
                878
            ],
            "title": "Star Wars: Episode III - Revenge of the Sith",
            "vote_average": 7.3,
            "overview": "The evil Darth Sidious enacts his final plan for unlimited power -- and the heroic Jedi Anakin Skywalker must choose a side.",
            "release_date": "2005-05-17"
        },
        {
            "popularity": 12.214,
            "vote_count": 1105,
            "video": false,
            "poster_path": "/veee7dll1xMwK14dGt0xsQekYYs.jpg",
            "id": 12180,
            "adult": false,
            "backdrop_path": "/sNNFLEcAuy4C3RyXCnKoArn7Aty.jpg",
            "original_language": "en",
            "original_title": "Star Wars: The Clone Wars",
            "genre_ids": [
                28,
                12,
                16,
                878
            ],
            "title": "Star Wars: The Clone Wars",
            "vote_average": 5.9,
            "overview": "Set between Episode II and III, The Clone Wars is the first computer animated Star Wars film. Anakin and Obi Wan must find out who kidnapped Jabba the Hutt's son and return him safely. The Seperatists will try anything to stop them and ruin any chance of a diplomatic agreement between the Hutts and the Republic.",
            "release_date": "2008-08-05"
        },
        {
            "popularity": 19.818,
            "vote_count": 9048,
            "video": false,
            "poster_path": "/oZNPzxqM2s5DyVWab09NTQScDQt.jpg",
            "id": 1894,
            "adult": false,
            "backdrop_path": "/dNt5q68BBkddBxlvrHDa1apyBy8.jpg",
            "original_language": "en",
            "original_title": "Star Wars: Episode II - Attack of the Clones",
            "genre_ids": [
                28,
                12,
                878
            ],
            "title": "Star Wars: Episode II - Attack of the Clones",
            "vote_average": 6.5,
            "overview": "Following an assassination attempt on Senator Padmé Amidala, Jedi Knights Anakin Skywalker and Obi-Wan Kenobi investigate a mysterious plot that could change the galaxy forever.",
            "release_date": "2002-05-15"
        },
        {
            "popularity": 8.131,
            "vote_count": 149,
            "video": false,
            "poster_path": "/h44WN4mVJ6wEpJgLaaNoFjv0NAo.jpg",
            "id": 42979,
            "adult": false,
            "backdrop_path": null,
            "original_language": "en",
            "original_title": "Robot Chicken: Star Wars",
            "genre_ids": [
                16,
                35,
                878
            ],
            "title": "Robot Chicken: Star Wars",
            "vote_average": 7.3,
            "overview": "Fans of Adult Swim's \"Robot Chicken\" and the Star Wars movie franchise won't want to miss this collection of 30 sketches. This hilarious compilation features an array of skits -- such as \"Darth Vader's Collect Call\" and \"Inside the AT-AT\" -- as well as the incredible voice talents of Hulk Hogan, Malcolm McDowell, Conan O'Brien and even the original Luke Skywalker himself, Mark Hamill.",
            "release_date": "2007-07-17"
        },
        {
            "popularity": 6.962,
            "id": 392216,
            "video": false,
            "vote_count": 61,
            "vote_average": 7.1,
            "title": "Phineas and Ferb: Star Wars",
            "release_date": "2014-07-26",
            "original_language": "en",
            "original_title": "Phineas and Ferb: Star Wars",
            "genre_ids": [
                28,
                16,
                35,
                10751,
                878,
                10402
            ],
            "backdrop_path": "/uYifvdMLo56rB05JuZbaBsZLmny.jpg",
            "adult": false,
            "overview": "Phineas and Ferb travel to a galaxy far far away to help out some rebel heroes.",
            "poster_path": "/xomphpz7MIasqVluPX83TjoTL8G.jpg"
        },
        {
            "popularity": 9.459,
            "vote_count": 261,
            "video": false,
            "poster_path": "/z9Kt75R05i2iBw68Ttg7Ta6aCbH.jpg",
            "id": 74849,
            "adult": false,
            "backdrop_path": "/ae9xlnkS2qb5Dy9Mtlu68AWh42O.jpg",
            "original_language": "en",
            "original_title": "The Star Wars Holiday Special",
            "genre_ids": [
                12,
                35,
                878,
                10751,
                10770
            ],
            "title": "The Star Wars Holiday Special",
            "vote_average": 3,
            "overview": "Luke Skywalker and Han Solo battle evil Imperial forces to help Chewbacca reach his imperiled family on the Wookiee planet - in time for Life Day, their most important day of the year!",
            "release_date": "1978-12-01"
        },
        {
            "popularity": 4.283,
            "vote_count": 7,
            "video": false,
            "poster_path": "/sovKAK4oVFagEIC64zYFoQJmpoH.jpg",
            "id": 667574,
            "adult": false,
            "backdrop_path": "/c8XIFuJCPTtTJdSRpqnUoMr6eK1.jpg",
            "original_language": "en",
            "original_title": "Battle Star Wars",
            "genre_ids": [
                878
            ],
            "title": "Battle Star Wars",
            "vote_average": 1.9,
            "overview": "When the leader of the evil Coalition threatens to destroy a Rebel planet for its resources, his daughter will have no choice but to join the Rebel side and fight for what is right.",
            "release_date": "2020-01-28"
        },
        {
            "popularity": 8.14,
            "vote_count": 72,
            "video": false,
            "poster_path": "/lcAA36kzOahKXVwWeJLaepMr58M.jpg",
            "id": 70608,
            "adult": false,
            "backdrop_path": "/hVl0qfLZ5loznDgQ0HxCTZqvZhz.jpg",
            "original_language": "en",
            "original_title": "Lego Star Wars: The Padawan Menace",
            "genre_ids": [
                16,
                878,
                10751
            ],
            "title": "Lego Star Wars: The Padawan Menace",
            "vote_average": 6.2,
            "overview": "A routine Jedi Academy field trip is turned into a rip-roaring comic adventure in LEGO Star Wars: The Padawan Menace. Tour guide Master Yoda leads a group of rambunctious Jedi Younglings through Senate chambers when he senses a disturbance in the Force. Summoned to help save the Republic, he discovers that one of the Younglings secretly boarded his ship...and has a taste for adventure! Meanwhile, C-3PO and R2-D2 are put in charge of the boisterous group and find themselves in over their heads. As the evil Sith prepare to wreak havoc, it's up to Yoda and the Droids to ensure that their young charges aren't torn to bricks!",
            "release_date": "2011-07-22"
        },
        {
            "popularity": 8.107,
            "vote_count": 87,
            "video": false,
            "poster_path": "/jbm1HQPHZJC9uGpncp15Efzsohy.jpg",
            "id": 42982,
            "adult": false,
            "backdrop_path": null,
            "original_language": "en",
            "original_title": "Robot Chicken: Star Wars Episode II",
            "genre_ids": [
                16,
                878
            ],
            "title": "Robot Chicken: Star Wars Episode II",
            "vote_average": 7.5,
            "overview": "Seth Green and Matthew Senreich serve up more hilarious Star Wars-inspired satire in this second compilation of sketches featuring the zany stop-motion animation of Adult Swim's \"Robot Chicken.\" Gary the stormtrooper deals with irascible boss Darth Vader on Take Your Daughter to Work Day, while Anakin babysits a certain up-and-coming Jedi. Carrie Fisher, Billy Dee Williams, Conan O'Brien and other stars provide voices.",
            "release_date": "2008-11-16"
        },
        {
            "popularity": 7.881,
            "vote_count": 83,
            "video": false,
            "poster_path": "/mi2lVho2zpfwcxI6yC1QYJi435D.jpg",
            "id": 51888,
            "adult": false,
            "backdrop_path": null,
            "original_language": "en",
            "original_title": "Robot Chicken: Star Wars Episode III",
            "genre_ids": [
                16,
                35,
                878
            ],
            "title": "Robot Chicken: Star Wars Episode III",
            "vote_average": 7.4,
            "overview": "Robot Chicken: Star Wars Episode III, directed by Chris McKay, combines the satirical sensibilities of Green and Matthew Senreich's Robot Chicken with characters of the Star Wars universe.",
            "release_date": "2010-12-19"
        },
        {
            "popularity": 7.006,
            "id": 287663,
            "video": false,
            "vote_count": 76,
            "vote_average": 7.2,
            "title": "Star Wars Rebels: Spark of Rebellion",
            "release_date": "2014-10-03",
            "original_language": "en",
            "original_title": "Star Wars Rebels: Spark of Rebellion",
            "genre_ids": [
                12,
                16,
                28,
                878,
                10770,
                10751
            ],
            "backdrop_path": null,
            "adult": false,
            "overview": "Ezra Bridger encounters the Ghost crew and joins them on a mission to free Wookiees from an Imperial Star Destroyer.",
            "poster_path": "/ApPuHAhH4wYGb4YCLChJYQvHUEF.jpg"
        },
        {
            "popularity": 3.679,
            "id": 515773,
            "video": false,
            "vote_count": 2,
            "vote_average": 6.5,
            "title": "Star Wars Spoofs",
            "release_date": "2011-01-01",
            "original_language": "en",
            "original_title": "Star Wars Spoofs",
            "genre_ids": [
                35
            ],
            "backdrop_path": "/aUxPyo0Olrr6qs33fKkjbX2piYk.jpg",
            "adult": false,
            "overview": "The farce is strong with this one! Enjoy a hilarious collection of Star Wars movie scene spoofs and parodies that have been created over the years, including outrageous clips from Family Guy, The Simpsons, How I Met Your Mother, and more - and don't miss \"Weird Al\" Yankovic's one-of-a-kind music video tribute to The Phantom Menace!",
            "poster_path": "/ApEnrioR2GrkyWVXCrIzDMtgk9b.jpg"
        }
    ]
}
